{
  "iisSettings": {
    "windowsAuthentication": false,
    "anonymousAuthentication": true,
    "iisExpress": {
      "applicationUrl": "http://localhost:7319",
      "sslPort": 44350
    }
  },
  "profiles": {
    "http": {
      "commandName": "Project",
      "launchBrowser": true,
      "applicationUrl": "http://localhost:5233",
      "environmentVariables": {
        "ASPNETCORE_ENVIRONMENT": "Development"
      },
      "dotnetRunMessages": true
    },
    "https": {
      "commandName": "Project",
      "launchBrowser": true,
      "applicationUrl": "https://localhost:7167;http://localhost:5233",
      "environmentVariables": {
        "ASPNETCORE_ENVIRONMENT": "Development"
      },
      "dotnetRunMessages": true
    },
    "IIS Express": {
      "commandName": "IISExpress",
      "launchBrowser": true,
      "environmentVariables": {
        "ASPNETCORE_ENVIRONMENT": "Development"
      }
    }
  }
}